/opt/mavenrepo/src/com/srk/servlet/RegistrationController.java
/opt/mavenrepo/src/com/srk/dao/StudentDAO.java
/opt/mavenrepo/src/com/srk/servlet/DeleteStudent.java
/opt/mavenrepo/src/vo/Student.java
/opt/mavenrepo/src/com/srk/servlet/ViewStudents.java
/opt/mavenrepo/src/com/srk/servlet/SaveEditedStudent.java
/opt/mavenrepo/src/com/srk/servlet/EditStudent.java
